<?xml version="1.0" encoding="UTF-8"?>
<svg width="512" height="512" viewBox="0 0 512 512" xmlns="http://www.w3.org/2000/svg">
 <path d="m49.333 462.6q-18.083 0-29.708-11.625-11.625-11.625-11.625-29.708v-330.67q0-18.083 11.625-29.708t29.708-11.625h413.33q18.083 0 29.708 11.625 11.625 11.625 11.625 29.708v330.67q0 18.083-11.625 29.708-11.625 11.625-29.708 11.625zm113.67-227.33q25.833 0 43.917-18.083 18.083-18.083 18.083-43.917 0-25.833-18.083-43.917-18.083-18.083-43.917-18.083-25.833 0-43.917 18.083-18.083 18.083-18.083 43.917 0 25.833 18.083 43.917 18.083 18.083 43.917 18.083zm279 165.33v-82.667l-82.667-82.667-124 124-72.333-73.625-113.67 114.96z" stroke-width="1.2917"/>
</svg>
